<svg width="32" height="32" viewBox="0 0 32 32" fill="none" xmlns="http://www.w3.org/2000/svg">
<path d="M30.6666 7.99999V2.66666C30.6666 2.31304 30.5262 1.9739 30.2761 1.72385C30.0261 1.4738 29.6869 1.33333 29.3333 1.33333H2.66665C2.31302 1.33333 1.97388 1.4738 1.72384 1.72385C1.47379 1.9739 1.33331 2.31304 1.33331 2.66666V7.99999H30.6666Z" fill="#2EC5CE"/>
<path d="M1.33331 10.6667V29.3333C1.33331 29.6869 1.47379 30.0261 1.72384 30.2761C1.97388 30.5262 2.31302 30.6667 2.66665 30.6667H9.33331V10.6667H1.33331Z" fill="#D6B1FF"/>
<path d="M12 30.6667H29.3333C29.687 30.6667 30.0261 30.5262 30.2761 30.2761C30.5262 30.0261 30.6667 29.6869 30.6667 29.3333V10.6667H12V30.6667Z" fill="#8C30F5"/>
</svg>
